Tour information for concerts in the spRingsteen dataset. — tours • spRingsteen
…
    Source

    http://brucebase.wikidot.com/

    Examples

library(dplyr)
# How many shows were on each tour?

tours %>%
  count(tour, sort = TRUE)
#> # A tibble: 24 × 2
#>    tour                                                   n
#>    <chr>                                              <int>
#>  1 Non-tour Shows                                       575
#>  2 Springsteen On Broadway                              268
#>  3 The River Tour                                       213
#>  4 The Wild, The Innocent & The E Street Shuffle Tour   197
#>  5 Born In The U.S.A. Tour                              156
#>  6 Greetings From Asbury Park Tour                      147
#>  7 Wrecking Ball Tour                                   134
#>  8 The Reunion Tour                                     132
#>  9 The Ghost Of Tom Joad Tour                           128
#> 10 The Rising Tour                                      120
#> # … with 14 more rows
#> # ℹ Use `print(n = ...)` to see more rows
…
